10 10

1 3
2 2 1
3 1 1 2
2 1 1
2 4 1
2 5 2
2 5 1
2 2 2
1 6
1 2

1 1
1 3
1 5
2 3 1
2 6 2
3 2 2 2
3 1 1 1
3 1 2 2
2 3 3
1 1

- - - - - x x x - -
- - - - x x - - x -
- - - - x - x - x x
- - - - x - - - x -
- - x x x x - x - -
- x x x x x - x x -
x x x x x - - - x -
- x x - - - - x x -
- - x x x x x x - -
- - - - x x - - - -
